R-Ladies and Tidyverse
…
background-image: url(https://github.com/rstudio/hex-stickers/raw/master/SVG/readr.svg?sanitize=true)
background-size: 100px
background-position: 90% 3%

# Import data 

```r
data_movies <- read_csv("data/tmdb_5000_movies.csv")
data_credits <- read_csv("data/tmdb_5000_credits.csv")

data_movies
```

```
## # A tibble: 4,803 x 20
##    budget genres homepage     id keywords original_langua~ original_title
##     <int> <chr>  <chr>     <int> <chr>    <chr>            <chr>         
##  1 2.37e8 "[{\"~ http://~  19995 "[{\"id~ en               Avatar        
##  2 3.00e8 "[{\"~ http://~    285 "[{\"id~ en               Pirates of th~
##  3 2.45e8 "[{\"~ http://~ 206647 "[{\"id~ en               Spectre       
##  4 2.50e8 "[{\"~ http://~  49026 "[{\"id~ en               The Dark Knig~
##  5 2.60e8 "[{\"~ http://~  49529 "[{\"id~ en               John Carter   
##  6 2.58e8 "[{\"~ http://~    559 "[{\"id~ en               Spider-Man 3  
##  7 2.60e8 "[{\"~ http://~  38757 "[{\"id~ en               Tangled       
##  8 2.80e8 "[{\"~ http://~  99861 "[{\"id~ en               Avengers: Age~
##  9 2.50e8 "[{\"~ http://~    767 "[{\"id~ en               Harry Potter ~
## 10 2.50e8 "[{\"~ http://~ 209112 "[{\"id~ en               Batman v Supe~
## # ... with 4,793 more rows, and 13 more variables: overview <chr>,
## #   popularity <dbl>, production_companies <chr>,
## #   production_countries <chr>, release_date <date>, revenue <dbl>,
## #   runtime <int>, spoken_languages <chr>, status <chr>, tagline <chr>,
## #   title <chr>, vote_average <dbl>, vote_count <int>
```
…
